{
  "dependencies": {
    "com.unity.cinemachine": {
      "version": "2.6.11",
      "depth": 0,
      "source": "registry",
      "dependencies": {},
      "url": "https://packages.unity.com"
    },
    "com.unity.ext.nunit": {
      "version": "1.0.6",
      "depth": 2,
      "source": "registry",
      "dependencies": {},
      "url": "https://packages.unity.com"
    },
    "com.unity.ide.rider": {
      "version": "2.0.7",
      "depth": 0,
      "source": "registry",
      "dependencies": {
        "com.unity.test-framework": "1.1.1"
      },
      "url": "https://packages.unity.com"
    },
    "com.unity.inputsystem": {
      "version": "1.3.0",
      "depth": 0,
      "source": "registry",
      "dependencies": {
        "com.unity.modules.uielements": "1.0.0"
      },
      "url": "https://packages.unity.com"
    },
    "com.unity.test-framework": {
      "version": "1.1.31",
      "depth": 1,
      "source": "registry",
      "dependencies": {
        "com.unity.ext.nunit": "1.0.6",
        "com.unity.modules.imgui": "1.0.0",
        "com.unity.modules.jsonserialize": "1.0.0"
      },
      "url": "https://packages.unity.com"
    },
    "com.unity.ugui": {
      "version": "1.0.0",
      "depth": 0,
      "source": "builtin",
      "dependencies": {
        "com.unity.modules.ui": "1.0.0",
        "com.unity.modules.imgui": "1.0.0"
      }
    },
    "com.unity.modules.animation": {
      "version": "1.0.0",
      "depth": 0,
      "source": "builtin",
      "dependencies": {}
    },
    "com.unity.modules.audio": {
      "version": "1.0.0",
      "depth": 1,
      "source": "builtin",
      "dependencies": {}
    },
    "com.unity.modules.director": {
      "version": "1.0.0",
      "depth": 0,
      "source": "builtin",
      "dependencies": {
        "com.unity.modules.audio": "1.0.0",
        "com.unity.modules.animation": "1.0.0"
      }
    },
    "com.unity.modules.imgui": {
      "version": "1.0.0",
      "depth": 1,
      "source": "builtin",
      "dependencies": {}
    },
    "com.unity.modules.jsonserialize": {
      "version": "1.0.0",
      "depth": 2,
      "source": "builtin",
      "dependencies": {}
    },
    "com.unity.modules.physics": {
      "version": "1.0.0",
      "depth": 0,
      "source": "builtin",
      "dependencies": {}
    },
    "com.unity.modules.ui": {
      "version": "1.0.0",
      "depth": 1,
      "source": "builtin",
      "dependencies": {}
    },
    "com.unity.modules.uielements": {
      "version": "1.0.0",
      "depth": 1,
      "source": "builtin",
      "dependencies": {
        "com.unity.modules.ui": "1.0.0",
        "com.unity.modules.imgui": "1.0.0",
        "com.unity.modules.jsonserialize": "1.0.0",
        "com.unity.modules.uielementsnative": "1.0.0"
      }
    },
    "com.unity.modules.uielementsnative": {
      "version": "1.0.0",
      "depth": 2,
      "source": "builtin",
      "dependencies": {
        "com.unity.modules.ui": "1.0.0",
        "com.unity.modules.imgui": "1.0.0",
        "com.unity.modules.jsonserialize": "1.0.0"
      }
    }
  }
}
